289668 176302
289165 109539
32420 96724
713059 645068
665620 168178
712234 797298
42157 882075
153399 915374
463217 497634
567189 278034
122057 115837
23171 422819
475545 369037
819725 834613
444236 492886
554489 611031
872050 993673
857115 613828
552622 49632
959278 448109
115056 843126
647119 45224
584715 654623
781862 847808
852637 642101
249380 235549
601530 273612
6695 277935
812264 889325
823588 565485
561226 91951
575335 202933
265911 601382
518107 41192
394624 255384
137321 227439
60741 110625
645217 813813
980011 511244
453862 185314
59286 771663
386596 315908
154693 508842
306924 678205
846969 98216
140899 674880
487746 132125
75046 268357
630686 719007
855646 243905
946077 988539
596641 770853
463056 700575
317261 861708
879902 590830
147601 24382
251414 359658
114524 237087
914629 375740
341778 883844
581749 105716
995474 884039
42872 304534
546583 255301
18208 306128
744732 4240
494269 481384
665501 662599
425766 6221
203126 833375
461799 556743
914883 206049
116138 740775
483709 755817
341457 266815
361201 647065
69768 239719
269489 966643
745600 536037
801815 990940
42215 452926
309033 301209
811739 258410
673358 317748
286463 46930
658363 961971
548895 47871
830193 495065
998629 26275
388636 941581
347846 743684
225309 823054
257935 599089
887563 837255
91215 288225
80919 286072
221501 65274
55196 698294
53403 549705
257092 225344
637906 22582
569576 6878
982406 978792
928313 820736
181229 858768
936492 875588
940515 940359
435055 114646
729509 454232
118525 440431
453359 666944
662757 982444
262801 270638
785707 896612
945031 656693
927529 805097
111182 59879
280354 408493
56210 615776
455273 582095
281415 866255
479574 123357
830689 771050
463145 840712
495841 128506
396908 492322
329053 549925
998213 42888
391087 527663
393189 493088
341678 435515
407725 517733
366436 633354
988426 639010
202812 716665
800124 688392
737910 721640
351342 389390
887126 245821
539072 910185
812185 843746
573304 792706
233883 631060
136914 771256
735209 888706
899911 699092
30979 376506
295259 919141
747914 165923
244004 243446
55443 607126
468557 982275
34498 318008
222492 797035
872618 103984
675459 869150
755376 738367
671967 110726
890773 839582
401863 785940
393352 782245
409363 582911
579881 26852
881622 92088
425362 467349
631568 792538
431138 56738
690162 623964
529243 952697
484668 197300
423261 165156
639971 853092
547056 536055
176573 850286
90230 667897
646166 546601
948390 26176
263380 487203
681398 873083
292379 391677
329697 814206
180249 763586
756820 660099
138853 251592
942980 177757
510543 770062
657957 357432
395401 977303
798851 256672
657154 326860
495005 846853
393969 65769
779731 441802
202680 737959
906211 954663
482672 109770
947274 770434
302564 286492
212766 466646
787939 317652
423640 594082
399108 642568
431373 272023
261708 980528
505056 695152
798424 587236
951895 632453
922940 26915
324696 401464
643019 939064
933570 345246
221310 171093
734345 705060
868808 157422
472535 160016
325442 281648
681789 356881
455506 946828
776736 851820
469560 32072
559335 743590
326225 348039
191115 130053
25193 91998
845874 213986
902620 57277
486330 769508
380688 656359
289661 148256
891914 419072
15196 563556
632404 220954
365344 210705
899136 190768
97254 847830
820894 223097
500438 950217
221397 595402
