427200 444118
13532 790828
715136 790796
421444 518148
500842 478938
771497 540648
650257 860930
405963 830490
971065 80410
452922 343685
235842 127839
899859 65437
173400 627574
672945 655938
690113 186927
534066 586937
359763 903784
517726 581214
14584 614543
198236 765280
96182 431704
336182 654441
326421 444648
308924 847402
585975 474235
766941 304576
831264 471551
71498 247165
622680 69415
67363 436091
881662 878914
122716 161120
895512 166813
746288 710014
215002 333291
728613 343530
355833 744463
742340 170246
463702 16468
84418 283919
403961 561072
939164 517909
712618 833652
704034 555251
145970 721705
276282 524742
497644 619929
135380 666378
370207 388607
597754 699515
501149 257392
932800 435111
52512 19688
163795 459310
989140 993725
65673 702170
219415 386098
362925 15746
204950 516288
200410 595140
707351 625938
488180 718066
886843 490404
998778 537762
81787 479717
44905 326534
681907 76436
229732 592046
222396 234756
195214 1338
994024 147906
324449 34128
241017 475911
593000 111437
38742 446464
676313 981562
145599 550320
96681 465088
711838 904942
330366 220720
368132 983191
24065 504792
196557 766215
712586 575421
481332 615240
39974 838807
692571 525490
779829 850533
722658 219853
488944 991826
965199 446055
883145 549418
556955 670611
50807 628056
859123 174055
33772 838926
939816 47206
83577 146176
433053 422644
634476 705112
162737 848293
747684 558426
257693 862917
515381 182049
874036 718259
522255 744888
457815 466927
414969 669591
230869 100980
237280 205925
832201 91704
16149 659441
347437 742370
950289 856802
975625 967739
758618 564686
658800 411212
533861 460615
358691 945655
752756 702025
32997 599511
564417 384029
111479 80017
764759 557598
358867 409678
78659 541000
53759 389261
760471 897340
908473 976490
441009 980424
715381 440501
989685 376371
311969 185632
283020 443705
214750 446868
633230 727147
570254 659477
123603 130145
668256 757668
375249 391614
380978 666951
921949 830458
471242 197827
251175 37899
488837 803797
258356 867427
154179 257564
611323 89491
377794 351891
561304 874656
160730 488871
654704 405702
949755 743041
434033 938071
630590 290172
208197 454420
390796 672444
824439 843103
635695 115291
11597 223608
585950 738925
616125 112683
231196 905707
251677 178202
624611 466323
6632 945801
286309 613494
580011 297402
496179 26300
946373 311353
181061 88
279138 695490
277825 48647
65776 749283
625940 127037
684970 802297
565749 881520
648732 400883
833307 523443
11810 133219
627049 339301
933524 724607
532261 248322
788858 647019
72656 91938
175616 197734
288667 289505
405634 467628
191708 947982
501217 174502
446840 41384
758514 304754
113138 928947
489310 264336
311990 520305
96833 309810
15434 330160
624559 360184
974309 649798
498088 711351
373828 469224
902349 586087
401874 165303
421176 466742
888199 236553
334776 215748
848418 248330
668449 225737
915836 741002
701840 438362
249051 42268
219928 235511
117364 889669
584757 344462
769540 937100
701676 159250
921185 710649
540429 719359
803663 946048
859458 285685
786864 745858
202272 568375
772500 433894
153556 104099
850650 732784
257424 790647
740351 675097
910896 731927
6362 885959
539077 980282
993330 293577
12079 525001
912137 444486
994674 734490
663995 464565
617134 6452
67114 708340
404642 522348
298426 865409
101285 564667
556530 902713
649251 842100
936339 987690
957772 143254
65296 351896
132652 22968
172548 894405
577606 965103
488777 544281
766591 207920
444338 479593
49438 418985
911742 628004
419950 733565
116367 584393
216842 861351
135178 164631
458094 948371
11421 698587
805014 851555
374532 963019
461123 55542
922463 51732
262096 173688
170175 812476
509495 413478
817448 397936
249877 191065
944205 363238
192010 598277
833920 566436
