771978 876447
570931 998325
958540 430068
834629 353114
616995 926712
526169 47209
132673 867115
24996 788519
386904 419433
322435 245723
626497 516706
348434 760764
146872 548697
118538 688793
424018 227432
692180 279614
696671 233510
416773 65388
910555 982848
460604 883164
27102 692829
704782 510680
816255 798320
734344 510661
883784 98390
836378 408939
232941 108789
303704 400307
302693 358022
307233 926264
310923 58416
972996 961714
630969 747932
77519 382940
650427 573837
908633 74401
789326 888758
955318 422660
761885 382519
110223 182696
596828 951557
546294 875376
412636 471505
391 648342
683679 978503
187402 452735
721326 877428
29022 265506
916323 112100
660337 262256
756494 912405
264017 784069
875936 401165
991482 160721
308918 287166
968710 836505
446546 903487
935063 124361
792575 907905
417301 463452
548058 370070
93146 634226
425492 869511
688844 679230
793096 954970
846593 994371
250872 565310
416450 541485
678175 705780
128111 852342
212885 738252
60271 446410
855038 145770
301253 707934
850461 85299
56380 2309
161078 320855
109792 890193
1211 686635
53179 168597
868515 145333
977686 554332
299100 93745
963644 107922
634596 27084
262331 653564
915092 677739
639558 240188
387674 252623
232110 446538
456486 970640
586730 776536
153626 196742
355974 526779
491432 798585
97356 683660
464418 362402
212908 984261
317989 583653
733829 202547
313193 769009
217186 765743
242280 236236
143490 554863
892406 371414
965475 473086
290355 956845
14284 520005
526426 828200
746433 767109
588226 528928
964196 926806
890016 119674
397407 308488
602831 655676
748393 356986
466763 174906
905912 512452
404201 436691
524978 665944
564836 593085
72866 652973
599281 518506
323238 955783
834086 229415
354483 152596
551913 182341
459519 961929
269995 760834
529679 404088
266998 593458
259982 434594
955072 144036
202384 502308
527617 726445
63192 688995
542730 354967
128458 906695
775070 856519
705659 934204
770706 77697
904551 230149
422759 459540
176245 508960
143722 660838
43663 546844
383927 896681
783011 928876
400441 759459
757548 973429
544770 595127
275814 244992
997396 425508
87522 359520
244618 619951
478963 69231
312448 157300
426283 6302
9313 632965
157073 587363
178866 786793
217031 96860
478086 968201
570292 663582
190376 556249
465516 967142
47799 43158
675837 957614
733260 897561
271659 508349
12592 586731
669843 914233
223944 741940
737992 168939
967323 14335
431981 283677
305408 271887
986102 604018
516494 602900
663695 857661
887048 927853
875055 725736
707240 785616
776447 68549
326529 307938
678371 93227
259588 675049
798033 358892
436877 435733
842838 920788
318590 85185
100429 329041
854094 127086
579561 229121
468275 170368
141624 629122
509230 322099
395939 71913
41675 749086
349142 549060
