771978 876447 525
570931 998325 525
958540 430068 525
834629 353114 509
616995 926712 525
526169 47209 470
132673 867115 525
24996 788519 509
386904 419433 449
322435 245723 407
626497 516706 509
348434 760764 509
146872 548697 470
118538 688793 509
424018 227432 449
692180 279614 509
696671 233510 509
416773 65388 449
910555 982848 507
460604 883164 525
27102 692829 509
704782 510680 509
816255 798320 406
734344 510661 509
883784 98390 525
836378 408939 509
232941 108789 443
303704 400307 441
302693 358022 441
307233 926264 525
310923 58416 443
972996 961714 458
630969 747932 504
77519 382940 443
650427 573837 509
908633 74401 525
789326 888758 525
955318 422660 525
761885 382519 509
110223 182696 383
596828 951557 525
546294 875376 525
412636 471505 444
391 648342 509
683679 978503 525
187402 452735 449
721326 877428 525
29022 265506 443
916323 112100 525
660337 262256 509
756494 912405 525
264017 784069 509
875936 401165 525
991482 160721 525
308918 287166 389
968710 836505 525
446546 903487 525
935063 124361 525
792575 907905 525
417301 463452 444
548058 370070 470
93146 634226 509
425492 869511 525
688844 679230 398
793096 954970 525
846593 994371 507
250872 565310 470
416450 541485 470
678175 705780 504
128111 852342 525
212885 738252 509
60271 446410 449
855038 145770 525
301253 707934 509
850461 85299 525
56380 2309 340
161078 320855 443
109792 890193 525
1211 686635 509
53179 168597 383
868515 145333 525
977686 554332 525
299100 93745 443
963644 107922 525
634596 27084 509
262331 653564 509
915092 677739 525
639558 240188 509
387674 252623 441
232110 446538 449
456486 970640 525
586730 776536 509
153626 196742 383
355974 526779 470
491432 798585 509
97356 683660 509
464418 362402 449
212908 984261 525
317989 583653 470
733829 202547 509
313193 769009 509
217186 765743 509
242280 236236 368
143490 554863 470
892406 371414 525
965475 473086 525
290355 956845 525
14284 520005 470
526426 828200 509
746433 767109 424
588226 528928 452
964196 926806 507
890016 119674 525
397407 308488 441
602831 655676 509
748393 356986 509
466763 174906 449
905912 512452 525
404201 436691 449
524978 665944 509
564836 593085 434
72866 652973 509
599281 518506 452
323238 955783 525
834086 229415 509
354483 152596 443
551913 182341 470
459519 961929 525
269995 760834 509
529679 404088 470
266998 593458 470
259982 434594 449
955072 144036 525
202384 502308 449
527617 726445 509
63192 688995 509
542730 354967 470
128458 906695 525
775070 856519 525
705659 934204 525
770706 77697 509
904551 230149 525
422759 459540 418
176245 508960 449
143722 660838 509
43663 546844 470
383927 896681 525
783011 928876 525
400441 759459 509
757548 973429 525
544770 595127 452
275814 244992 407
997396 425508 525
87522 359520 443
244618 619951 470
478963 69231 449
312448 157300 443
426283 6302 449
9313 632965 509
157073 587363 470
178866 786793 509
217031 96860 386
478086 968201 525
570292 663582 509
190376 556249 470
465516 967142 525
47799 43158 314
675837 957614 525
733260 897561 525
271659 508349 449
12592 586731 470
669843 914233 525
223944 741940 509
737992 168939 509
967323 14335 525
431981 283677 449
305408 271887 389
986102 604018 525
516494 602900 452
663695 857661 525
887048 927853 476
875055 725736 525
707240 785616 468
776447 68549 509
326529 307938 384
678371 93227 509
259588 675049 509
798033 358892 509
436877 435733 325
842838 920788 476
318590 85185 443
100429 329041 443
854094 127086 525
579561 229121 470
468275 170368 449
141624 629122 509
509230 322099 449
395939 71913 443
41675 749086 509
349142 549060 470
