673977 505328
227719 141620
134194 134517
503893 95876
218994 628851
820136 477134
307399 177465
413422 42232
248903 377194
856377 138532
180728 499536
516955 734142
34044 837194
725920 663756
769074 585970
76343 44210
121442 93543
72936 553666
716990 326895
466075 645076
150508 34347
691227 673401
780947 294406
982942 173207
930781 292610
964418 907189
683404 342518
794609 576191
104986 673101
930268 365177
530235 459167
840383 445291
683993 62843
166299 603627
925935 753455
643452 576685
897935 506204
456420 232341
985845 888558
850715 32317
954972 131004
883389 529039
861317 826093
543227 879774
514132 850732
763094 542839
767674 215617
834717 231430
695379 562420
786714 386720
29598 164836
267028 975499
443030 249015
266031 106881
206248 938780
793441 244516
31796 998255
195679 451489
610982 118192
37735 414817
644938 850078
594782 136284
642035 218230
629117 528623
722943 588936
861634 594204
472475 654547
131762 49057
779096 56209
718375 233970
407749 274707
411541 867197
989765 193293
36171 423262
708778 30488
346698 201658
632939 873249
654486 271298
767726 513429
464954 15331
806491 228425
416855 784423
486227 415762
41667 36461
826311 804755
422947 848034
107187 768362
178991 16885
58009 217145
301461 244067
437585 877411
790586 772555
223676 294391
74085 561148
386985 584824
506572 597579
223587 475755
294004 845520
320751 501450
148437 945850
606147 650499
246631 295662
506837 624151
502650 349972
789041 678888
955114 186522
555960 825741
44749 224404
926972 937744
79393 23659
902631 173712
766804 996627
911094 895162
744924 528000
255632 905037
725224 682905
498350 990639
891372 482271
512402 483056
510902 814933
502873 427991
28384 869785
58195 796661
739994 970336
476323 460439
770504 423958
434163 50565
264304 297651
231336 701369
436078 830868
240088 367439
761270 563359
111229 379348
990107 486628
978464 918632
517175 969800
756285 227878
220400 904890
29382 486453
33231 216325
100185 83489
472094 292508
413544 469631
544513 9402
712715 525405
248354 705306
606422 916755
699356 417317
676370 233129
46717 229108
165638 810200
815499 701327
58691 394408
70121 889835
366724 989924
810202 195974
435524 410999
605625 76230
453399 393781
890274 871233
457838 605823
188477 69472
46060 798255
943310 163102
426565 733885
918805 393151
168923 540097
215747 785033
514663 824869
756627 558317
754769 259698
40224 73980
194339 741221
952490 310233
301143 740289
886754 876113
624472 550792
150722 306802
699343 899122
903540 727590
938191 799770
240745 870366
462904 505525
518066 675981
454894 535899
227938 678953
162285 528118
14099 798270
864865 140420
567616 185928
677526 140623
423030 126522
209589 538263
86398 927865
17260 436328
276303 63828
809604 331230
279670 238185
616234 554181
127776 18646
394874 885063
512390 983963
917314 590144
468084 2022
152179 27754
436356 560813
814709 625486
967137 782196
44474 665933
369259 627098
896982 18234
896886 19418
635905 365174
989232 625032
266476 451387
841092 74267
893467 971876
909983 24143
254442 687436
402886 99235
497193 572671
698736 251297
771962 618290
308599 376830
729505 332987
419529 227310
639439 332235
146988 759622
457943 69125
412099 647891
441807 69
502347 478414
64440 915532
264490 145299
470426 133839
672249 592154
87524 252127
921867 554380
463997 83705
69035 413277
