812976 309160
122960 881687
994600 51580
545449 324041
764462 86666
801283 936039
874829 686999
712640 600907
858853 888841
829579 687559
794408 582788
170799 322720
860723 119052
188489 492773
126240 854929
739882 185063
31974 953181
382725 950929
681720 525803
751060 532426
434770 301813
957061 469495
391720 721085
71282 59185
2151 377980
726469 825125
165976 657468
598212 403717
988286 416398
769218 898194
423204 912389
599782 568532
905348 83882
736843 603148
392445 403076
952209 243619
999138 84293
405857 428897
392265 54087
926401 756827
687696 377951
383056 280923
114798 749434
192546 754779
81927 985504
112902 804910
570337 759257
343417 558336
917656 276344
711909 9471
381705 796138
487223 508633
749919 839669
298167 625039
127579 694047
187982 703575
787397 427299
651126 391043
706858 259869
254227 401660
35751 722117
275328 881240
544447 278915
511284 849054
886944 630529
223149 709162
279014 590590
15232 187906
543334 699426
784059 115944
851396 632903
243746 397132
258468 196371
814296 135419
998166 85976
234779 82352
454151 291522
609697 660173
961640 692905
307270 558932
210076 648425
772783 795274
364564 171249
783762 209809
830801 727590
813259 13955
123424 272463
495000 19416
467854 758457
95682 710360
94650 605317
387765 200305
64910 334005
51746 133597
935410 21099
525159 897007
256960 723780
949541 359171
836013 453702
63306 919348
656404 505704
710322 588269
805735 600287
454813 598530
121375 880637
711337 688906
664985 430620
93072 86847
299960 552859
972696 152274
81849 587878
542509 433961
187925 993103
157190 322348
184383 287718
210734 537224
629861 261939
140347 765325
676555 326373
857235 489902
323275 436609
679801 459667
881739 215985
299012 407952
236245 700255
37115 823591
48296 439361
324610 42488
561309 596960
699680 459589
320469 114518
913288 708760
67460 355830
498752 302698
907482 638842
273709 383422
630764 483602
648865 284379
135166 24377
642919 255428
238116 424437
368050 738475
290325 386202
263893 572778
142362 786570
87818 537145
114338 7051
473288 120734
297517 49355
807799 743484
230711 178181
589612 13395
487554 629237
914263 710868
276182 517845
748436 415646
335238 658355
898491 201126
244170 951134
288775 512414
328886 341299
211966 880896
105427 119257
946832 974022
391583 729935
663743 407049
27226 732395
736973 181935
265089 846903
608713 780908
988514 512014
47622 915062
214803 938350
315906 672381
72360 989227
936125 529673
780471 49891
694302 516359
159114 987627
336649 60767
581158 91875
579244 86553
480985 857917
216065 580831
400322 69089
378933 57347
10908 513078
17716 39582
34625 948635
154899 659609
236753 991582
565514 793285
923013 836763
187813 666426
155144 205091
883843 497159
921137 411799
930163 46654
208617 196574
874081 507963
724899 843067
735273 576852
939420 401197
234306 548604
23690 32036
972161 725261
440611 343306
331721 331094
790327 908871
785836 415017
28151 249116
199217 624099
661054 755133
637012 597693
887456 486083
514666 291844
968618 6721
386987 166322
971884 675817
281968 781584
606212 147259
468767 366949
105508 578408
938286 547835
