439413 164737 449
846441 660551 525
385239 425389 449
244985 17510 443
31990 49101 324
833657 495441 509
846984 115370 525
315598 332677 384
418985 19150 449
911703 712604 525
839305 427568 525
74612 347069 443
864918 505668 525
798514 868650 525
386780 795390 509
729188 510197 509
333337 770310 509
584930 887738 525
306406 573448 470
548874 436100 470
940874 16492 525
908864 939294 476
462768 879444 525
913677 860336 476
264747 613978 470
904901 41682 525
89084 688289 509
912633 901213 476
104704 899089 525
629482 209660 509
515984 353275 470
787422 336248 509
272467 506047 449
659449 474614 509
265319 211293 443
855613 983797 507
882548 937031 476
715256 733880 411
315826 643517 509
970661 126327 525
166585 905980 525
365419 974780 525
851176 373888 525
569219 954857 525
839747 58061 525
93037 108905 354
751796 966353 525
541248 829746 509
820970 543424 509
917464 467644 525
179033 734563 509
24392 693881 509
333585 951696 525
628614 747227 504
132185 637248 509
187581 388863 443
220173 971334 525
540416 145615 470
986458 766162 525
662034 635053 429
136768 841621 525
650778 587159 509
800682 827158 450
769792 968025 525
926212 198306 525
940019 833578 525
341164 363905 441
784453 452534 509
423332 994862 525
516579 65121 470
46087 78815 351
834691 146422 509
748029 269504 509
772204 855367 525
667494 377668 509
996942 606403 525
618194 774171 509
755778 939205 525
730620 735774 424
582487 112214 470
294906 200645 443
287537 468238 449
240020 355760 441
83952 658207 509
784776 774482 437
669828 113630 509
241368 818914 509
514760 891938 525
83877 827332 509
33784 843662 525
474993 618336 470
170964 150364 383
405533 583032 470
384691 171236 443
705473 849400 525
192266 723809 509
464631 845419 525
734505 172206 509
145318 942100 525
648160 668706 442
132884 532483 470
486559 351617 449
689629 248222 509
80223 627662 509
384647 803685 509
259879 22638 443
463318 542415 470
223897 55353 386
282869 20978 443
165264 260655 443
453117 547442 470
508263 505451 382
512974 601159 452
775979 368578 509
950477 618041 525
955177 828217 525
838739 788470 525
194555 178541 365
370445 753962 509
282212 147137 443
477293 904017 525
209500 698787 509
813775 916217 525
37212 752387 509
497363 141609 449
782921 303680 509
458950 584986 470
609909 582005 434
486470 874084 525
225107 571148 470
47063 864770 525
670747 258857 509
56620 871489 525
217868 519496 470
337028 479439 449
586897 736285 509
696984 329143 509
531903 818193 509
508502 535971 470
395591 599731 470
702705 539578 509
106514 410870 449
937284 115209 525
645505 946846 525
353141 104664 443
534201 598807 452
350237 675187 509
250517 612003 470
479680 274456 449
728722 883597 525
104948 801480 509
429510 264557 449
910263 643982 525
491576 88196 449
138229 669962 509
773570 573092 509
335084 666049 509
214953 350493 443
691895 386537 509
468492 789518 509
441221 563238 470
889761 896022 370
800037 142486 509
42751 968353 525
497364 596459 470
959409 468961 525
749382 808273 468
726354 457415 509
966800 973994 458
209396 984724 525
434342 36915 449
198721 133840 383
252080 562797 470
96597 592620 470
647647 831217 504
229999 63028 386
684011 765488 504
987525 347664 525
315953 350303 441
41050 73046 340
617026 232233 470
363633 193870 443
576490 991348 525
341525 413764 449
335222 433935 449
178783 376477 443
222867 761273 509
304394 36862 443
257366 30874 443
479900 419191 444
567794 658638 509
808797 612623 509
799533 360698 509
323190 98791 443
183915 612310 470
211045 534378 470
473937 45504 449
697988 25730 509
684407 415782 509
611389 651273 509
327734 276015 389
456874 833186 509
789870 206647 509
226366 78233 386
422333 732386 509
691978 266644 509
881439 5318 525
400930 475592 449
76621 502079 449
735374 600202 509
157236 982385 525
921813 321928 525
627909 160070 509
315763 380755 441
184040 384238 443
415996 964750 525
951672 915280 507
893572 594096 525
582189 467394 470
171614 25893 383
71338 607890 470
44538 926451 525
643580 983227 525
718309 858036 525
34512 980358 525
769744 897541 525
659331 956909 525
900105 781965 525
318121 554569 470
542011 467438 470
82990 425853 449
212868 485322 449
330736 312938 384
862938 101619 525
1418 611600 470
628851 285074 509
639022 289362 509
383943 984871 525
967557 390413 525
894040 979438 507
266379 397309 441
752138 254870 509
297954 102443 443
140539 608919 470
946412 271591 525
666729 517038 509
60033 390595 443
